{
  "count": 87,
  "next": "https://swapi.co/api/people/?page=2",
  "previous": null,
  "results": [
    {
      "name": "Luke Skywalker",
      "height": "172",
      "mass": "77",
      "hair_color": "blond",
      "skin_color": "fair",
      "eye_color": "blue",
      "birth_year": "19BBY",
      "gender": "male",
      "homeworld": "https://swapi.co/api/planets/1/",
      "films": [
        "https://swapi.co/api/films/2/",
        "https://swapi.co/api/films/6/"
      ],
      "species": [
        "https://swapi.co/api/species/1/"
      ],
      "vehicles": [
      ],
      "starships": [
        "https://swapi.co/api/starships/12/",
        "https://swapi.co/api/starships/22/"
      ],
      "created": "2014-12-09T13:50:51.644000Z",
      "edited": "2014-12-20T21:17:56.891000Z",
      "url": "https://swapi.co/api/people/1/"
    },
    {
      "name": "C-3PO",
      "height": "167",
      "mass": "75",
      "hair_color": "n/a",
      "skin_color": "gold",
      "eye_color": "yellow",
      "birth_year": "112BBY",
      "gender": "n/a",
      "homeworld": "",
      "films": [
        "https://swapi.co/api/films/2/",
        "https://swapi.co/api/films/5/"
      ],
      "species": [
        "https://swapi.co/api/species/2/"
      ],
      "vehicles": [],
      "starships": [],
      "created": "2014-12-10T15:10:51.357000Z",
      "edited": "2014-12-20T21:17:50.309000Z",
      "url": "https://swapi.co/api/people/2/"
    }
  ]
}